{
    "reactants":
    {
         "names": ["A","Solid"]
    },


    "reaction":
	{
      "cMinimum"       :  1e-3,
      "isIsoThermal"   :  false,
      "temperature"    :  1,  
      "Arrhenius_A"    :  1e0,
      "Arrhenius_beta" :  0,
      "Arrhenius_E_A"  :  76e3,
      "GrowthActive"   : false,
	  "GrowthMolesFormed": 0.0,
	  "growthProductMolarWeight": 10,
	  "growthProductDensity": 900
    },

    "A":
    {
         "reactionOrder": 1,
         "stoichiometry": -1
    },
    "Solid":
    {
         "reactionOrder": 0,
         "stoichiometry": -1
    }
    
}
